1.154730946436460126e+00 6.774764644739365238e+00
1.404730946436460126e+00 4.740079911395458367e-01
1.654730946436460126e+00 -3.154506724458157052e+00
1.904730946436460126e+00 -4.749265090259838118e+00
2.154730946436460126e+00 -5.111651600960000152e+00
2.404730946436460126e+00 -4.923995642060004840e+00
2.654730946436460126e+00 -4.583241500960253845e+00
2.904730946436460126e+00 -4.229195959658069270e+00
3.154730946436460126e+00 -3.909542613760391916e+00
3.404730946436460126e+00 -3.651229848658955390e+00
3.654730946436460126e+00 -3.450050920658510378e+00
3.904730946436460126e+00 -3.303889736459792559e+00
4.154730946436460570e+00 -3.200786484859532877e+00
4.404730946436460570e+00 -3.130249272660263316e+00
4.654730946436460570e+00 -3.084889529159523747e+00
4.904730946436460570e+00 -3.054829249958244120e+00
5.154730946436460570e+00 -3.036075300558264800e+00
