1.965096081571589881e+00 1.852727740497596365e+00
2.215096081571589881e+00 -8.005382032022110295e-01
2.465096081571589881e+00 -2.002985019800450850e+00
2.715096081571589881e+00 -2.523900832700507912e+00
2.965096081571589881e+00 -2.676828263400000019e+00
3.215096081571589881e+00 -2.590922470102429820e+00
3.465096081571589881e+00 -2.400248768801009014e+00
3.715096081571589881e+00 -2.183348327900364261e+00
3.965096081571589881e+00 -1.972630041301942860e+00
4.215096081571589437e+00 -1.785803485301346250e+00
4.465096081571589437e+00 -1.638469082303106283e+00
4.715096081571589437e+00 -1.526399135600274626e+00
4.965096081571589437e+00 -1.437776285699999157e+00
5.215096081571589437e+00 -1.369498026600683538e+00
5.465096081571589437e+00 -1.320582299402064841e+00
5.715096081571589437e+00 -1.283199164801533065e+00
5.965096081571589437e+00 -1.255662469302239792e+00
