1.781750019425259790e+00 -2.715370853397807149e-01
2.031750019425259790e+00 -5.669204623386512321e-01
2.281750019425259790e+00 -7.761802188392656898e-01
2.531750019425259790e+00 -8.921492846397931498e-01
2.781750019425259790e+00 -9.308565251389999684e-01
3.031750019425259790e+00 -9.104217286398970099e-01
3.281750019425259790e+00 -8.506791362392440714e-01
3.531750019425259790e+00 -7.698203742397644600e-01
3.781750019425259790e+00 -6.785871362385413885e-01
4.031750019425260234e+00 -5.868431406392964345e-01
4.281750019425260234e+00 -5.001159717389718207e-01
4.531750019425260234e+00 -4.212392869389922634e-01
4.781750019425260234e+00 -3.522629197391260458e-01
5.031750019425260234e+00 -2.928780210399899442e-01
5.281750019425260234e+00 -2.427399585389984349e-01
5.531750019425260234e+00 -2.013265459386210932e-01
5.781750019425260234e+00 -1.675810289393602215e-01
