4.418356949022499425e-01 1.335514078908079938e-01
6.918356949022499425e-01 -2.810751438506668975e+00
9.418356949022499425e-01 -5.168291550007962698e+00
1.191835694902249942e+00 -6.674488019407545991e+00
1.441835694902249942e+00 -7.065755059809999850e+00
1.691835694902249942e+00 -6.807691278909443255e+00
1.941835694902249942e+00 -6.275070353409502033e+00
2.191835694902249720e+00 -5.713202360808464775e+00
2.441835694902249720e+00 -5.227924072407587275e+00
2.691835694902249720e+00 -4.787338848507898703e+00
2.941835694902249720e+00 -4.442801372706709273e+00
3.191835694902249720e+00 -4.170055553806561122e+00
3.441835694902249720e+00 -3.946461520807316603e+00
3.691835694902249720e+00 -3.778918447808065295e+00
3.941835694902249720e+00 -3.650664939008676058e+00
4.191835694902249720e+00 -3.550232076510111412e+00
4.441835694902249720e+00 -3.483059415908611456e+00
