1.940334145336609861e+00 -4.430262634779179587e-01
2.190334145336609861e+00 -6.128100577772098712e-01
2.440334145336609861e+00 -7.533168525770858048e-01
2.690334145336609861e+00 -8.423595741770665279e-01
2.940334145336609861e+00 -8.711829599779999933e-01
3.190334145336609861e+00 -8.479248463773952915e-01
3.440334145336609861e+00 -7.888489328762485764e-01
3.690334145336609861e+00 -7.087062384781571689e-01
3.940334145336609861e+00 -6.205779553785074620e-01
4.190334145336610305e+00 -5.325975661763774349e-01
4.440334145336610305e+00 -4.503447650787389955e-01
4.690334145336610305e+00 -3.771356671787767789e-01
4.940334145336610305e+00 -3.134878330785110245e-01
5.190334145336610305e+00 -2.585147159771846725e-01
5.440334145336610305e+00 -2.127949658789699550e-01
5.690334145336610305e+00 -1.744791610764192535e-01
5.940334145336610305e+00 -1.428608940769887647e-01
