4.501906843657899060e-01 3.545252593099701421e-01
9.501906843657899060e-01 -1.880915741969953370e+00
1.200190684365789906e+00 -2.581473353140050886e+00
1.450190684365789906e+00 -2.803003538780000081e+00
1.700190684365789906e+00 -2.621770010599799416e+00
1.950190684365789906e+00 -2.193249225730038443e+00
2.200190684365789906e+00 -1.676946286589906077e+00
2.450190684365789906e+00 -1.215668030149923862e+00
2.950190684365789906e+00 -5.851057164098949492e-01
3.450190684365789906e+00 -1.819990031098188688e-01
4.450190684365789906e+00 6.399544077031693590e-02
5.450190684365789906e+00 1.111058286502282222e-01
6.450190684365789906e+00 1.198927925403165951e-01
