9.726240597754800543e-01 1.900380883079564764e+00
1.222624059775480054e+00 -6.251288398187129225e-01
1.472624059775480054e+00 -2.190542449818890791e+00
1.722624059775480054e+00 -2.915974802920386910e+00
1.972624059775480054e+00 -3.099054759519999980e+00
2.222624059775480276e+00 -2.987562918619728780e+00
2.472624059775480276e+00 -2.754792935019209299e+00
2.722624059775480276e+00 -2.496923851619426760e+00
2.972624059775480276e+00 -2.262778604620321321e+00
3.222624059775480276e+00 -2.068776406919637711e+00
3.472624059775480276e+00 -1.918685354718759672e+00
3.722624059775480276e+00 -1.807976929618958284e+00
3.972624059775480276e+00 -1.730195911119877028e+00
4.222624059775480276e+00 -1.678182440119412977e+00
4.472624059775480276e+00 -1.643715277320366486e+00
4.722624059775480276e+00 -1.622277061019117728e+00
4.972624059775480276e+00 -1.609711116218746074e+00
