1.368721989694130059e+00 1.628701261120995269e+01
1.618721989694130059e+00 3.876976149319665943e+00
1.868721989694130059e+00 -1.203274989150309615e+00
2.118721989694130059e+00 -2.967292377840117901e+00
2.368721989694130059e+00 -3.331228576780000061e+00
2.618721989694130059e+00 -3.145366528340042045e+00
2.868721989694130059e+00 -2.774687620700029278e+00
3.118721989694130059e+00 -2.370852050489980378e+00
3.368721989694130059e+00 -1.995621358690010005e+00
3.618721989694130059e+00 -1.671500856020252890e+00
3.868721989694130059e+00 -1.403492130820091610e+00
4.118721989694130059e+00 -1.188732545550288400e+00
4.368721989694130059e+00 -1.021318046350011777e+00
4.618721989694130059e+00 -8.940373444900666655e-01
4.868721989694130059e+00 -7.996916684704098444e-01
5.118721989694130059e+00 -7.318372266402599635e-01
5.368721989694130059e+00 -6.846729602200918308e-01
