1.769804843239390024e+00 9.291061502239843506e+00
2.019804843239390024e+00 2.231076229340631212e+00
2.269804843239390024e+00 -2.153728597598658645e-01
2.519804843239390024e+00 -9.391631419597090691e-01
2.769804843239390024e+00 -1.070654261160000065e+00
3.019804843239390024e+00 -1.026900261359826150e+00
3.269804843239390024e+00 -9.303515517597973350e-01
3.519804843239390024e+00 -8.394822660605698594e-01
3.769804843239390024e+00 -7.693650616596117153e-01
4.019804843239390024e+00 -7.152329122594367483e-01
4.269804843239390024e+00 -6.748042796601496640e-01
4.519804843239390024e+00 -6.481010687596993058e-01
4.769804843239390024e+00 -6.284392115606736162e-01
5.019804843239390024e+00 -6.148565134602379523e-01
5.269804843239390024e+00 -6.064439781597159573e-01
5.519804843239390024e+00 -6.002071290598380848e-01
5.769804843239390024e+00 -5.963855623607217105e-01
