1.776026145651639965e+00 1.390519099615983123e+01
2.026026145651639965e+00 3.745583565559968520e+00
2.276026145651639965e+00 1.381847474584674274e-01
2.526026145651639965e+00 -9.273309861401912713e-01
2.776026145651639965e+00 -1.113013167340000109e+00
3.026026145651639965e+00 -1.036142097540619034e+00
3.276026145651639965e+00 -9.156943101407932772e-01
3.526026145651639965e+00 -8.120744503413561688e-01
3.776026145651639965e+00 -7.365034044415779135e-01
4.026026145651639965e+00 -6.855118569402520734e-01
4.276026145651639965e+00 -6.522188653417515525e-01
4.526026145651639965e+00 -6.309850064409374681e-01
4.776026145651639965e+00 -6.175873457415264056e-01
5.026026145651639965e+00 -6.096925071416308128e-01
5.276026145651639965e+00 -6.052477997401410903e-01
5.526026145651639965e+00 -6.019538617402986347e-01
5.776026145651639965e+00 -5.996287851413626413e-01
