2.458049920914409991e+00 8.528445621180578140e-01
2.708049920914409991e+00 -4.135415223806051532e-01
2.958049920914409991e+00 -9.295818716833894602e-01
3.208049920914409991e+00 -1.129354923583072656e+00
3.458049920914409991e+00 -1.187101833080000057e+00
3.708049920914409991e+00 -1.170733641681785508e+00
3.958049920914409991e+00 -1.108360116782627580e+00
4.208049920914410436e+00 -1.019559576483210828e+00
4.458049920914410436e+00 -9.197019625804971898e-01
4.708049920914410436e+00 -8.198718322798088654e-01
4.958049920914410436e+00 -7.256313282829653932e-01
5.208049920914410436e+00 -6.414511447816624301e-01
5.458049920914410436e+00 -5.684623230824075168e-01
5.708049920914410436e+00 -5.069494941832675128e-01
5.958049920914410436e+00 -4.560991737832085224e-01
6.208049920914410436e+00 -4.158230608824526886e-01
6.458049920914410436e+00 -3.835764829833936407e-01
