1.444072428792840146e+00 1.044402674289051447e+01
1.694072428792840146e+00 2.333394172491921825e+00
1.944072428792840146e+00 -5.446075939074712657e-01
2.194072428792840146e+00 -1.396107837507201577e+00
2.444072428792840146e+00 -1.562923686310000004e+00
2.694072428792840146e+00 -1.496086542007446507e+00
2.944072428792840146e+00 -1.385094438206919687e+00
3.194072428792840146e+00 -1.288862605208464185e+00
3.444072428792840146e+00 -1.207436894008764749e+00
3.694072428792840146e+00 -1.137856570207417928e+00
3.944072428792840146e+00 -1.083944697009769254e+00
4.194072428792839702e+00 -1.044677990409013102e+00
4.444072428792839702e+00 -1.019757261209064847e+00
4.694072428792839702e+00 -1.011903103608687626e+00
4.944072428792839702e+00 -1.011932355806834050e+00
5.194072428792839702e+00 -1.011739971309338681e+00
5.444072428792839702e+00 -1.012330186208032057e+00
