7.561660669423899694e-01 1.038750389479873304e+00
1.006166066942389969e+00 2.870595955596122462e-01
1.256166066942389969e+00 -1.735295326002692651e-01
1.506166066942389969e+00 -3.953425805703141283e-01
1.756166066942389969e+00 -4.849600065899999368e-01
2.006166066942389747e+00 -4.794513341303450193e-01
2.256166066942389747e+00 -3.992196584800062897e-01
2.506166066942389747e+00 -3.195898986300840239e-01
2.756166066942389747e+00 -2.737989907300566461e-01
3.006166066942389747e+00 -2.322251669802704033e-01
3.256166066942389747e+00 -1.580866643203358013e-01
3.506166066942389747e+00 -1.173099980501597361e-01
3.756166066942389747e+00 -9.750895459003960930e-02
4.006166066942389747e+00 -5.331807604036886694e-02
4.256166066942389747e+00 1.023411001003249332e-02
4.506166066942389747e+00 2.322142304998986440e-02
4.756166066942389747e+00 3.394175572972879529e-02
