1.613991469890080133e+00 2.045066658485130873e+01
1.863991469890080133e+00 5.546291992150248262e+00
2.113991469890080133e+00 -2.598000783490412857e-01
2.363991469890080133e+00 -2.112280178049228851e+00
2.613991469890080133e+00 -2.457691003149999887e+00
2.863991469890080133e+00 -2.310271156449640984e+00
3.113991469890080133e+00 -2.061865239749646861e+00
3.363991469890080133e+00 -1.843568174648577696e+00
3.613991469890080133e+00 -1.682894751449463655e+00
3.863991469890080133e+00 -1.575654553249375311e+00
4.113991469890080133e+00 -1.507381328148664323e+00
4.363991469890080133e+00 -1.465766279148635221e+00
4.613991469890080133e+00 -1.440947320548627175e+00
4.863991469890080133e+00 -1.426780938248963793e+00
5.113991469890080133e+00 -1.418234114849735050e+00
5.363991469890080133e+00 -1.413392665548496296e+00
5.613991469890080133e+00 -1.410445128449179464e+00
