1.305488098477539882e+00 4.140878919396060454e-01
1.555488098477539882e+00 -5.101894688301866765e-01
1.805488098477539882e+00 -7.738401549101139310e-01
2.055488098477539882e+00 -9.553196739899716405e-01
2.305488098477539882e+00 -1.026437440979999671e+00
2.555488098477539882e+00 -9.886605576199611889e-01
2.805488098477539882e+00 -9.047809239001720627e-01
3.055488098477539882e+00 -8.026733368102680899e-01
3.305488098477539882e+00 -6.957974990001742910e-01
3.555488098477539882e+00 -5.918755929202701438e-01
3.805488098477539882e+00 -4.954732805400920981e-01
4.055488098477539438e+00 -4.103296780700942392e-01
4.305488098477539438e+00 -3.388475506500538970e-01
4.555488098477539438e+00 -2.811784657102647245e-01
4.805488098477539438e+00 -2.367946584401137144e-01
5.055488098477539438e+00 -2.042414083099641786e-01
5.305488098477539438e+00 -1.811773118103259250e-01
