3.485510858225260300e+00 1.223927574590307210e-01
3.735510858225260300e+00 1.605311995969899153e-02
3.985510858225260300e+00 -4.759267325082688904e-02
4.235510858225260300e+00 -8.423661066101700845e-02
4.485510858225260300e+00 -9.917960582991142138e-02
4.735510858225260300e+00 -1.018887711600000023e-01
4.985510858225260300e+00 -9.568539207996579199e-02
5.235510858225260300e+00 -8.348503225008968576e-02
5.485510858225260300e+00 -6.898381390076607778e-02
5.735510858225260300e+00 -5.397945705974777075e-02
5.985510858225260300e+00 -3.938993777067295587e-02
6.235510858225260300e+00 -2.453986948078451524e-02
6.485510858225260300e+00 -1.249189339999062787e-02
6.735510858225260300e+00 -2.113743860016226161e-03
6.985510858225260300e+00 7.079894148566412415e-03
7.235510858225260300e+00 1.300653345949470685e-02
7.485510858225260300e+00 1.883221854929800765e-02
