1.750749724822080022e+00 6.125561163698900913e+00
2.000749724822080022e+00 2.638641277008244579e-01
2.250749724822080022e+00 -1.990721850499514556e+00
2.500749724822080022e+00 -2.852402416898232484e+00
2.750749724822080022e+00 -3.052502277499999916e+00
3.000749724822080022e+00 -2.950960006899524313e+00
3.250749724822080022e+00 -2.729705744699433279e+00
3.500749724822080022e+00 -2.482564613201222681e+00
3.750749724822080022e+00 -2.258133830098788319e+00
4.000749724822080466e+00 -2.075297279301568931e+00
4.250749724822080466e+00 -1.933915366498669908e+00
4.500749724822080466e+00 -1.826861157998766583e+00
4.750749724822080466e+00 -1.747080647099184869e+00
5.000749724822080466e+00 -1.688249227900061822e+00
5.250749724822080466e+00 -1.646236892698627496e+00
5.500749724822080466e+00 -1.617437180801036600e+00
5.750749724822080466e+00 -1.598529078899420863e+00
