2.812632506356929962e+00 1.305552929541558549e-01
3.062632506356929962e+00 -1.520934286465522312e-01
3.312632506356929962e+00 -3.152485300463045426e-01
3.562632506356929962e+00 -3.961977698465521391e-01
3.812632506356929962e+00 -4.189383229470000081e-01
4.062632506356930406e+00 -4.041211804480586145e-01
4.312632506356930406e+00 -3.698246330470315590e-01
4.562632506356930406e+00 -3.271701092464386895e-01
4.812632506356930406e+00 -2.811651837484565042e-01
5.062632506356930406e+00 -2.365932098484368473e-01
5.312632506356930406e+00 -1.964470312461376600e-01
5.562632506356930406e+00 -1.601787470473969299e-01
5.812632506356930406e+00 -1.297324743474778663e-01
6.062632506356930406e+00 -1.039880565487724673e-01
6.312632506356930406e+00 -8.313706184817742928e-02
6.562632506356930406e+00 -6.585361564903319254e-02
6.812632506356930406e+00 -5.358237014770889095e-02
