1.310815564681759859e+00 1.445911742170769188e+01
1.560815564681759859e+00 3.124833071609959934e+00
1.810815564681759859e+00 -1.028955631989315389e+00
2.060815564681759859e+00 -2.340735882391395517e+00
2.310815564681759859e+00 -2.584260076890000146e+00
2.560815564681759859e+00 -2.475494816689983946e+00
2.810815564681759859e+00 -2.279830547691612974e+00
3.060815564681759859e+00 -2.091699886192013746e+00
3.310815564681759859e+00 -1.939706077990063005e+00
3.560815564681759859e+00 -1.825097037091704788e+00
3.810815564681759859e+00 -1.743919493792286612e+00
4.060815564681759859e+00 -1.688320786890340042e+00
4.310815564681759859e+00 -1.651665284689311175e+00
4.560815564681759859e+00 -1.628464178889639680e+00
4.810815564681759859e+00 -1.614195345691637140e+00
5.060815564681759859e+00 -1.605317631890879948e+00
5.310815564681759859e+00 -1.600435365491516659e+00
