1.443983614467470034e+00 2.269449106263754956e+01
1.943983614467470034e+00 -9.307306940568245146e-01
2.193983614467470034e+00 -2.748744311258183526e+00
2.443983614467470034e+00 -3.085370077259999899e+00
2.693983614467470034e+00 -2.930760302758704139e+00
2.943983614467470034e+00 -2.660408405357434614e+00
3.193983614467470034e+00 -2.396515537958753495e+00
3.443983614467470034e+00 -2.176628239557890421e+00
3.943983614467470034e+00 -1.893673934162057204e+00
4.443983614467470034e+00 -1.762146351658434806e+00
5.443983614467470034e+00 -1.694528920957514284e+00
6.443983614467470034e+00 -1.675646941959262559e+00
7.443983614467470034e+00 -1.672156809963330826e+00
