2.109252053527229886e+00 -1.673730162949760292e-01
2.359252053527229886e+00 -2.899349921938374486e-01
2.609252053527229886e+00 -3.645566329944522899e-01
2.859252053527229886e+00 -3.992451603937916538e-01
3.109252053527229886e+00 -4.024463074949999886e-01
3.359252053527229886e+00 -3.877197788936137535e-01
3.609252053527229886e+00 -3.615345366945512673e-01
3.859252053527229886e+00 -3.279310632936067726e-01
4.109252053527230331e+00 -2.935930184942372456e-01
4.359252053527230331e+00 -2.598040993946306720e-01
4.609252053527230331e+00 -2.289405400936339596e-01
4.859252053527230331e+00 -2.015679291946690377e-01
5.109252053527230331e+00 -1.772364625942537408e-01
5.359252053527230331e+00 -1.576437221940687472e-01
5.609252053527230331e+00 -1.409163405935651703e-01
5.859252053527230331e+00 -1.284053627935173303e-01
6.109252053527230331e+00 -1.186949806945158947e-01
