3.888297492940300248e-01 2.026293311121956009e+01
6.388297492940300248e-01 4.571798101819901206e+00
8.888297492940300248e-01 -1.447128212480287335e+00
1.138829749294030025e+00 -3.459033821280876442e+00
1.388829749294030025e+00 -3.876214670279999996e+00
1.638829749294030025e+00 -3.666753005280746880e+00
1.888829749294030025e+00 -3.249533924380351824e+00
2.138829749294029803e+00 -2.794117544079903315e+00
2.388829749294029803e+00 -2.370805834380711463e+00
2.638829749294029803e+00 -2.009244917079535231e+00
2.888829749294029803e+00 -1.719595250779797357e+00
3.138829749294029803e+00 -1.497719888679761358e+00
3.388829749294029803e+00 -1.333908856979882263e+00
3.638829749294029803e+00 -1.217483048080588492e+00
3.888829749294029803e+00 -1.137532329980580403e+00
4.138829749294029803e+00 -1.084329585479985258e+00
4.388829749294029803e+00 -1.049898885880587773e+00
