9.314453312378399019e-01 9.799935759530153945e+00
1.181445331237839902e+00 3.011533427100157478e+00
1.431445331237839902e+00 -9.737059265701373256e-01
1.681445331237839902e+00 -2.799219137060181328e+00
1.931445331237839902e+00 -3.262111572769999857e+00
2.181445331237839902e+00 -2.978445961760162408e+00
2.431445331237839902e+00 -2.347043632609957076e+00
2.681445331237839902e+00 -1.602254461880211256e+00
2.931445331237839902e+00 -8.711191470099675094e-01
3.181445331237839902e+00 -2.189346679799837325e-01
3.431445331237839902e+00 3.233969118298136713e-01
3.681445331237839902e+00 7.372357947599357253e-01
3.931445331237839902e+00 1.019036473600162918e+00
4.181445331237839902e+00 1.202943656259985783e+00
4.431445331237839902e+00 1.318386181809937607e+00
4.681445331237839902e+00 1.387724868550076263e+00
4.931445331237839902e+00 1.428646843600045013e+00
