1.257064074226310169e+00 3.475282495510304770e+00
1.757064074226310169e+00 -4.692683643588702935e+00
2.007064074226310169e+00 -6.043147596687072465e+00
2.257064074226310169e+00 -6.381784011889999775e+00
2.507064074226310169e+00 -6.162044607386656381e+00
2.757064074226310169e+00 -5.712664800488733263e+00
3.007064074226310169e+00 -5.216040725688822377e+00
3.257064074226310169e+00 -4.764547410588443555e+00
3.757064074226310169e+00 -4.113467441689886428e+00
4.257064074226310169e+00 -3.759887078889756040e+00
5.257064074226310169e+00 -3.522107207489193925e+00
6.257064074226310169e+00 -3.481563470686547035e+00
7.257064074226310169e+00 -3.470998650987917600e+00
